…
``` r
stop <- read_csv("Datos/stop.csv")

constitucion_palabra <- constitucion %>% 
  unnest_tokens(palabra, inciso) %>% 
  anti_join(stop) 

constitucion_palabra %>% 
  count(palabra, sort = TRUE)
```

    ## # A tibble: 3,335 x 2
    ##    palabra            n
    ##    <chr>          <int>
    ##  1 ley              280
    ##  2 presidente       177
    ##  3 podrã            147
    ##  4 caso             104
    ##  5 constitucional    97
    ##  6 repãºblica        88
    ##  7 ejercicio         83
    ##  8 tribunal          78
    ##  9 derecho           76
    ## 10 nacional          71
    ## # ... with 3,325 more rows
